#!/bin/sh
DateFolder="`date +%Y/%m/%d/`"
Folder="/home/backups/"
net="10.75.0.0"
ip="18"

SqlPassword="mysql123sjb"
SqlUser="root"
SqlHost="192.168.0.99"
DesFolder="back@172.17.20.13:/mnt/Seagate/$net/$ip/"
fileName="`date +%H%M`.sql.gz"