

work---->    passarg  - fix logrotate  - multi tred jobs - 
      									- change password -

 peyda kardane afzayesh hard vspherea -				env hosts password read from ssh-key
                                                                                                       
remove empty line from a file with sed                                                                                                                                                                     


