def ReleaseRD():
df -Th > tdisk1
sed -n '2p' < tdisk1 >tdisk2
cut -c 44-45 tdisk2 >tdisk3	
if (cat tdisk3) > 90:
	rm /tomcat/logs/*
	rm -rf /var/logs/mysql/*
	sudo service tomcat restart
	sleep 10s
	sudo service mysql restart
	df -Th > tdisk1
	sed -n '2p' < tdisk1 >tdisk2
	cut -c 44-45 tdisk2 >tdisk3	
	if (cat tdisk3) < 90:
		print "Disk Space Cleared"
	if (cat tdisk3) > 90:
		alternate release disk command
		if (cat tdisk3) < 90: 
			print "Disk Space Cleared"
		else:
			print "Disk-Clear process Failed"
rm tdisk*
cat /proc/meminfo > tram1
sed -n '2p' < tram1 >tram2
cat tram2 |grep -o '[0-9]*' >tram3	
if (cat tram3) < 1048576:
	rm -rf /var/logs/mysql/*
	sudo service tomcat restart
	sleep 10s
	sudo service mysql restart
	cat /proc/meminfo > tram1
	sed -n '2p' < tram1 >tram2
	cat tram2 |grep -o '[0-9]*' >tram3	
	if (cat tram3) > 1048576:
		print "Ram-cache and Swap Cleared"
	if (cat tram3) < 1048576:
		sudo sh -c 'echo 1 >/proc/sys/vm/drop_caches'
		sudo sh -c 'echo 2 >/proc/sys/vm/drop_caches'
		sudo sh -c 'echo 3 >/proc/sys/vm/drop_caches'
		#sudo sysctl -w vm                                                                        drop_caches=3
		#sudo sync && echo 3 | sudo tee /proc/sys/vm/drop_caches
		#sudo swapoff -a && swapon -a
		cat /proc/meminfo > tram1
		sed -n '2p' < tram1 >tram2
		cat tram2 |grep -o '[0-9]*' >tram3	
		if (cat tram3) > 1048576: 
			print "Ram-cache and Swap Cleared"
		else:
			print "Ram-Clear process Failed"
rm tram*
ReleaseRD()