chardet (2.2.1)
colorama (0.2.5)
future (0.15.2)
html5lib (0.999)
http-parser (0.8.3)
jenkinsapi (0.2.29)
jira (1.0.3)
jsonpickle (0.9.3)
oauthlib (1.0.3)
pip (1.5.4)
PySocks (1.5.6)
python-dateutil (2.4.2)
python-telegram-bot (4.0.3)
pytz (2015.7)
requests (2.2.1)
requests-oauthlib (0.6.1)
requests-toolbelt (0.6.0)
setuptools (3.3)
six (1.5.2)
termcolor (1.1.0)
tlslite (0.4.9)
urllib3 (1.7.1)
wheel (0.24.0)
xmltodict (0.9.2)
